Lock Line Analysis
…
Step 4: Identify Playoff teams and Non-Playoff Teams

This step should be pretty easy using the resulting dataframe above:

postseason_teams <-
  all_seasons %>%
  filter(session == "P") %>%
  select(season, conference, division, team) %>%
  unique()

postseason_teams

## # A tibble: 176 x 4
##      season conference division  team 
##       <dbl> <chr>      <chr>     <chr>
##  1 20072008 East       Atlantic  PIT  
##  2 20072008 East       Atlantic  N.J  
##  3 20072008 West       Pacific   S.J  
##  4 20072008 West       Northwest MIN  
##  5 20072008 East       Northeast MTL  
##  6 20072008 West       Central   DET  
##  7 20072008 West       Pacific   ANA  
##  8 20072008 East       Southeast WSH  
##  9 20072008 East       Northeast BOS  
## 10 20072008 East       Atlantic  NYR  
## #  with 166 more rows
…
To be honest the Ducks run to right the ship after starting 0-4 is pretty much what you would expect. While no one wants to start out by dropping 8 possible points, with a few strong win streaks its possible to get back in the hunt. That appears to be what happened in this case. Lets take a looke at games 5 through 25 of the season

head(filter(team_results, team == "ANA" & team_game >= 5 & team_game <= 25), n = 21)

## # A tibble: 21 x 20
##    season session game_date  game_id game_period team  opp   team_score
##     <dbl> <chr>   <date>       <dbl>       <dbl> <chr> <chr>      <dbl>
##  1 2.01e7 R       2008-10-17  2.01e9           3 ANA   S.J            4
##  2 2.01e7 R       2008-10-19  2.01e9           3 ANA   CAR            1
##  3 2.01e7 R       2008-10-29  2.01e9           4 ANA   DET            5
##  4 2.01e7 R       2008-10-31  2.01e9           5 ANA   VAN            6
##  5 2.01e7 R       2008-11-02  2.01e9           3 ANA   CGY            3
##  6 2.01e7 R       2008-11-05  2.01e9           3 ANA   STL            5
##  7 2.01e7 R       2008-11-07  2.01e9           3 ANA   DAL            2
##  8 2.01e7 R       2008-11-09  2.01e9           3 ANA   FLA            1
##  9 2.01e7 R       2008-11-14  2.01e9           4 ANA   NSH            3
## 10 2.01e7 R       2008-11-16  2.01e9           3 ANA   L.A            2
## #  with 11 more rows, and 12 more variables: opp_score <dbl>,
## #   team_points <dbl>, opp_points <dbl>, team_game <dbl>,
## #   team_point_total <dbl>, opp_game <dbl>, opp_point_total <dbl>,
## #   side <chr>, result <chr>, conference <chr>, division <chr>,
## #   playoff_team <chr>

The Ducks recovered from a rough start by going 14-4-3 in their next 21 games for a 73.8% points percentage. They also ended the season on a 7-2-1 run to end the season with a total of 91 points which was good enough for second in the Pacific.

The story isnt nearly as fun for fans of the 2015-16 Habs. After a blistering 9-0 start, Montreal was able to keep up a pretty strong pace through 26 games with a 19-4-2 record for a 80.8% points percentage. Unfortunately a number of very significant injuries (the most significant of which was an MCL sprain to Carey Price that sidelined him for much of the season) were just too much to overcome. Over the next 26 games the team went 5-1-20 and the season was in real jeopardy.

head(filter(team_results, team == "MTL" & team_game >= 27 & team_game <= 52), n = 26)

## # A tibble: 26 x 20
##    season session game_date  game_id game_period team  opp   team_score
##     <dbl> <chr>   <date>       <dbl>       <dbl> <chr> <chr>      <dbl>
##  1 2.02e7 R       2015-12-03  2.02e9           3 MTL   WSH            2
##  2 2.02e7 R       2015-12-09  2.02e9           3 MTL   BOS            1
##  3 2.02e7 R       2015-12-12  2.02e9           3 MTL   OTT            3
##  4 2.02e7 R       2015-12-15  2.02e9           3 MTL   S.J            1
##  5 2.02e7 R       2015-12-17  2.02e9           3 MTL   L.A            0
##  6 2.02e7 R       2016-01-06  2.02e9           3 MTL   N.J            2
##  7 2.02e7 R       2016-01-09  2.02e9           3 MTL   PIT            1
##  8 2.02e7 R       2016-01-14  2.02e9           3 MTL   CHI            1
##  9 2.02e7 R       2016-01-19  2.02e9           3 MTL   BOS            1
## 10 2.02e7 R       2016-01-26  2.02e9           3 MTL   CBJ            2
## #  with 16 more rows, and 12 more variables: opp_score <dbl>,
## #   team_points <dbl>, opp_points <dbl>, team_game <dbl>,
## #   team_point_total <dbl>, opp_game <dbl>, opp_point_total <dbl>,
## #   side <chr>, result <chr>, conference <chr>, division <chr>,
## #   playoff_team <chr>
…
